{
  "name": "gulp-cooler",
  "productName": "Cooler",
  "version": "0.1.0",
  "description": "",
  "license": "MIT",
  "main": "main.js",
  "repository": "",
  "author": {
    "name": "Matthew Schroeter",
    "email": "schroeter.m83@gmail.com",
    "url": "mattschroeter.me"
  },
  "scripts": {
    "start": "electron .",
    "build": "electron-packager . --asar --overwrite --out=dist",
    "pack": "electron-builder --dir",
    "dist": "electron-builder",
    "test": "xo"
  },
  "keywords": [
    "electron-app",
    "gulp",
    "gulpfile",
    "buil",
    "tool",
    "task",
    "runner",
    "app",
    "ui",
    "macos",
    "osx"
  ],
  "private": true,
  "build": {
    "appId": "Cooler",
    "mac": {
      "category": "developer-tools",
      "target": "dmg",
      "icon": "build/icon.icns"
    },
    "linux": {
      "packageCategory": "public.app-category.developer-tools",
      "target": [
        "AppImage",
        "rpm"
      ]
    },
    "win": {
      "target": "nsis",
      "icon": "build/icon.ico"
    }
  },
  "dependencies": {
    "current-path": "^2.0.0",
    "display-notification": "^2.0.0",
    "fix-path": "^2.0.0",
    "get-gulp-tasks": "^4.0.0",
    "gulp": "^3.6.2",
    "lodash": "^4.13.1",
    "electron-store": "^1.2.0",
    "fkill": "^5.0.0",
    "pkg-up": "^1.0.0"
  },
  "devDependencies": {
    "electron": "^1.3.3",
    "electron-builder": "^19.16.0",
    "electron-packager": "^8.5.1",
    "electron-prebuilt": "^1.4.13",
    "electron-debug": "^1.0.0",
    "request": "^2.81.0",
    "xo": "*"
  },
  "xo": {
    "esnext": true,
    "rules": {
      "import/no-dynamic-require": "off"
    }
  }
}
